%YAML 1.1
%TAG !u! tag:unity3d.com,2011:
--- !u!114 &11400000
MonoBehaviour:
  m_ObjectHideFlags: 0
  m_CorrespondingSourceObject: {fileID: 0}
  m_PrefabInstance: {fileID: 0}
  m_PrefabAsset: {fileID: 0}
  m_GameObject: {fileID: 0}
  m_Enabled: 1
  m_EditorHideFlags: 0
  m_Script: {fileID: 11500000, guid: dd016ca12a5384cfc9a72ade1ebc9371, type: 3}
  m_Name: NecklaceOfSpeed
  m_EditorClassIdentifier: 
  itemName: Necklace of Speed
  equiped: 0
  itemSprite: {fileID: 21300000, guid: a3ec62f4ac7974e038ffba391b90dfa5, type: 3}
  slot: 1
  strength: 0
  dexterity: 10
  constitution: 0
  inteligence: 0
  wisdom: 0
  charisma: 0
