%YAML 1.1
%TAG !u! tag:unity3d.com,2011:
--- !u!114 &11400000
MonoBehaviour:
  m_ObjectHideFlags: 0
  m_CorrespondingSourceObject: {fileID: 0}
  m_PrefabInstance: {fileID: 0}
  m_PrefabAsset: {fileID: 0}
  m_GameObject: {fileID: 0}
  m_Enabled: 1
  m_EditorHideFlags: 0
  m_Script: {fileID: 11500000, guid: dd016ca12a5384cfc9a72ade1ebc9371, type: 3}
  m_Name: StuddedLeather
  m_EditorClassIdentifier: 
  itemName: Studded Leather
  equiped: 0
  itemSprite: {fileID: 21300000, guid: 015fccf8d8c834e98ab93ad3a7231f3c, type: 3}
  slot: 2
  id: 4
  Strength: 0
  Dexterity: 0
  Constitution: 12
